51
-0.122621 -0.289325 0.949345 0.841688
0.0705272 -0.167861 0.983285 0.965663
-0.131879 -0.24385 0.960804 0.873918
0.337474 -0.216566 0.916084 0.798355
0.0881654 -0.181565 0.979419 0.956838
0.00704825 -0.350224 0.93664 0.822984
0.284981 -0.262952 0.92176 0.810825
0.126493 -0.271904 0.953975 0.888701
0.406836 -0.292682 0.865345 0.653561
0.139619 -0.291663 0.946276 0.867838
0.249899 -0.237858 0.938602 0.856536
0.114002 -0.244825 0.962842 0.912813
0.357807 -0.299592 0.884431 0.706886
0.30305 -0.183171 0.935206 0.850751
0.395023 -0.23073 0.889225 0.723838
0.291444 -0.134898 0.947028 0.883016
0.114493 -0.243551 0.963107 0.913623
-0.10607 -0.222516 0.969142 0.90218
0.416015 -0.245583 0.875569 0.684815
0.370944 -0.23314 0.898914 0.750703
0.470958 -0.242795 0.848086 0.605745
0.0375914 -0.353133 0.934818 0.82167
-0.0624749 -0.200725 0.977653 0.933029
-0.151461 -0.263385 0.952727 0.846993
0.264907 -0.302706 0.915529 0.790751
-0.0313137 -0.180449 0.983086 0.952682
0.0931974 -0.259806 0.961153 0.905661
0.0335525 -0.278405 0.959877 0.89482
0.397395 -0.287889 0.871319 0.670814
-0.00768843 -0.159646 0.987144 0.967072
0.253945 -0.133246 0.957997 0.911263
0.0483482 -0.189162 0.980755 0.956162
0.133542 -0.316227 0.939237 0.846596
0.167745 -0.122944 0.978134 0.960476
0.10067 -0.288685 0.952117 0.880409
0.264588 -0.125363 0.956179 0.906802
0.214043 -0.171808 0.961596 0.918683
-0.0506712 -0.150316 0.987339 0.961781
0.00471965 -0.223662 0.974655 0.933633
0.199152 -0.120364 0.972549 0.947549
0.28023 -0.280449 0.918052 0.799583
0.111246 -0.224007 0.968218 0.927819
0.329207 -0.140509 0.933745 0.847863
0.313613 -0.318274 0.894622 0.733373
-0.117295 -0.302262 0.945981 0.832542
0.244018 -0.264397 0.933032 0.839951
0.35157 -0.262516 0.898601 0.748418
0.0989813 -0.234437 0.967079 0.923261
0.320885 -0.243011 0.915412 0.795249
0.342302 -0.167135 0.924606 0.822894
-0.158184 0.233434 -0.95942 41.8718
