51
-0.424855 -0.153006 0.892237 0.794158
-0.343988 -0.0708593 0.936297 0.90517
-0.261596 -0.0804377 0.96182 0.957239
-0.246047 -0.101747 0.963903 0.958275
-0.538161 -0.0789337 0.839138 0.671036
-0.213219 -0.062422 0.975008 0.983456
-0.427887 -0.12199 0.895562 0.806174
-0.497213 -0.0792162 0.864005 0.733701
-0.4173 -0.181201 0.890521 0.785703
-0.14418 -0.11547 0.982791 0.985222
-0.342778 -0.179624 0.922084 0.858535
-0.274771 -0.186018 0.943344 0.902179
-0.21088 -0.16524 0.963445 0.944635
-0.222101 -0.0845982 0.971347 0.974265
-0.15891 -0.256679 0.953343 0.895562
-0.129929 -0.185808 0.973958 0.952011
-0.289245 -0.155726 0.944503 0.910895
-0.393783 -0.126052 0.91052 0.840763
-0.163794 -0.0766415 0.983513 0.994351
-0.302355 -0.150272 0.941276 0.905226
-0.176853 -0.0857612 0.980494 0.9887
-0.158743 -0.230084 0.960136 0.917113
-0.595746 -0.0670434 0.80037 0.57123
-0.154311 -0.254088 0.954792 0.898678
-0.212574 -0.118259 0.969962 0.966249
-0.538422 -0.167242 0.825913 0.627219
-0.377787 -0.133395 0.916233 0.852902
-0.433964 -0.0381955 0.90012 0.824728
-0.470795 -0.100672 0.87648 0.762469
-0.242205 -0.0897768 0.966062 0.964038
-0.33282 -0.220581 0.916829 0.838345
-0.551391 -0.162433 0.818281 0.60811
-0.406637 -0.0426884 0.912592 0.853759
-0.483593 -0.175096 0.857601 0.70648
-0.450779 -0.203057 0.869233 0.730655
-0.280306 -0.11354 0.953172 0.935656
-0.411853 -0.0434333 0.910215 0.848167
-0.583152 -0.127433 0.802306 0.570574
-0.163114 -0.219455 0.96189 0.924102
-0.507227 -0.0863789 0.857473 0.716757
-0.551072 -0.081884 0.83043 0.648457
-0.137751 -0.0576566 0.988787 1.00345
-0.371224 -0.0759484 0.925432 0.8805
-0.328044 -0.107427 0.938534 0.905947
-0.554578 -0.155924 0.817392 0.606663
-0.21902 -0.25348 0.94222 0.879959
-0.50633 -0.182296 0.842851 0.668341
-0.256624 -0.223799 0.940244 0.886222
-0.13474 -0.146088 0.980053 0.973197
-0.114562 -0.10498 0.987854 0.99232
0.318566 0.134951 -0.938245 41.7685
