51
-0.467325 -0.0570985 0.88224 0.736162
-0.0959813 -0.0872976 0.991548 0.983726
-0.115363 -0.106142 0.987636 0.973672
-0.304381 0.0377524 0.951802 0.923148
-0.101155 -0.0931671 0.990499 0.980924
-0.473204 -0.0467801 0.87971 0.731085
-0.309625 -0.0824231 0.94728 0.896039
-0.104931 -0.0740134 0.991721 0.987755
-0.448158 -0.0635103 0.891695 0.759978
4.15066e-005 0.00253595 0.999997 1.0003
-0.412166 -0.0670211 0.908641 0.803217
-0.142185 -0.0529217 0.988424 0.988151
-0.132034 -0.0098429 0.991196 0.999566
-0.55758 0.0519568 0.828495 0.605635
-0.258417 -0.09036 0.961798 0.927917
-0.550248 -0.0429877 0.833894 0.607518
-0.0225821 -0.00790679 0.999714 1.00285
0.0260632 -0.0763869 0.996738 0.974896
-0.54085 -0.00542412 0.841101 0.632996
-0.546611 0.0234874 0.837057 0.625754
-0.174275 -0.0773181 0.981657 0.971545
-0.297049 -0.0274793 0.954467 0.921686
-0.0418428 -0.0996147 0.994146 0.97861
-0.00922625 -0.0870254 0.996163 0.979368
-0.0370355 -0.00423854 0.999305 1.00506
-0.295864 -0.0661074 0.95294 0.912155
-0.117915 0.0272543 0.99265 1.0055
-0.437786 -0.0595355 0.897106 0.774708
-0.204293 -0.0489175 0.977687 0.96931
-0.288658 -0.00836266 0.957396 0.931011
0.0362622 -0.0399089 0.998545 0.982893
0.0397255 0.0376735 0.9985 0.991908
-0.541866 0.0204947 0.840215 0.634038
-0.18732 -0.049547 0.981049 0.975787
-0.0882413 -0.0320473 0.995583 1.00103
-0.529738 -0.013037 0.848061 0.650964
-0.306804 -0.0698984 0.949203 0.902769
-0.0849748 0.014053 0.996284 1.00807
-0.372437 0.0351465 0.927392 0.864073
-0.393024 -0.0283525 0.919091 0.835603
-0.212334 -0.0953228 0.972537 0.949908
-0.277036 0.00284617 0.960855 0.940286
-0.413079 -0.0745218 0.907641 0.799418
-0.56354 -0.00162129 0.826087 0.592054
-0.156368 0.0178636 0.987537 0.996933
-0.354536 0.00750728 0.935012 0.879741
-0.426259 -0.0346419 0.903938 0.796151
-0.110226 0.0138795 0.99381 1.00579
-0.162916 -0.0629377 0.98463 0.979852
-0.0237361 -0.0144786 0.999613 1.00197
0.230498 0.03524 -0.972435 43.5796
